{
    "aws": {
        "accessKeyId": "AKIAJO4P4H2JOXMPWDUQ",
        "secretAccessKey": "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",
        "region": "eu-west-1"
    },
    "auth0": {
        "server_secret": "jburEXeP5K4CgJ3rh2gPWzfSbJMo8iOqjGvQdatpD_udBmVWa8HDgrOtGuDUDUnv",
        "domain": "meeting.eu.auth0.com",
        "connection": "meeting",
        "endpoint": "https://meeting.eu.auth0.com/oauth/token",
        "client_id": "WEIgqWIg9u60gjrKQC24cPTFR30MtAfh",
        "client_secret": "2LjTjukG04Af3hk_Ll6js9JsrncSL0nvlUw2ojTMJMf044YOGEe1MsTVIqnwoMvb",
        "audience": "https://meeting.eu.auth0.com/api/v2/"
    },
    "express": {
        "port": 3000
    },
    "smtp": {
        "host": "smtp.gmail.com",
        "port": 587,
        "auth": {
            "user": "sviluppo.meeting@gmail.com",
            "pass": "zaq!2wsx"
        }
    }
}