INSERT INTO timesheet (id_comitato, inizio,	fine, aula,	giudice, tutor,	prova )	VALUES (	'103', 			'1400', 	'1435', 	'aula_1', 			'11',	 		'2', 		'Prova1'	);
INSERT INTO timesheet (id_comitato, inizio,	fine, aula,	giudice, tutor,	prova )	VALUES (	'103', 			'1436', 	'1510', 	'aula_4', 			'21', 			'2', 		'Prova2'	);
INSERT INTO timesheet (id_comitato, inizio,	fine, aula,	giudice, tutor,	prova )	VALUES (	'103', 			'1511', 	'1545', 	'aula_7', 			'31', 			'2', 		'Prova3'	);
INSERT INTO timesheet (id_comitato, inizio,	fine, aula,	giudice, tutor,	prova )	VALUES (	'103', 			'1546', 	'1615', 	'aula_liberi',		'', 			'2', 		'Pausa'	);
INSERT INTO timesheet (id_comitato, inizio,	fine, aula,	giudice, tutor,	prova )	VALUES (	'103', 			'1616', 	'1650', 	'aula_10',			'41', 			'2', 		'Prova4'	);
INSERT INTO timesheet (id_comitato, inizio,	fine, aula,	giudice, tutor,	prova )	VALUES (	'103', 			'1651', 	'1725', 	'aula_13', 			'51', 			'2', 		'Prova5');
INSERT INTO timesheet (id_comitato, inizio,	fine, aula,	giudice, tutor,	prova )	VALUES (	'103', 			'1726', 	'1800', 	'aula_16', 			'61', 			'2', 		'Prova6');

INSERT INTO timesheet (id_comitato, inizio,	fine, aula,	giudice, tutor,	prova )	VALUES (	'118', 			'1400', 	'1435', 	'aula_2', 			'12',	 		'2', 		'Prova1'	);
INSERT INTO timesheet (id_comitato, inizio,	fine, aula,	giudice, tutor,	prova )	VALUES (	'118', 			'1436', 	'1510', 	'aula_5', 			'22', 			'2', 		'Prova2'	);
INSERT INTO timesheet (id_comitato, inizio,	fine, aula,	giudice, tutor,	prova )	VALUES (	'118', 			'1511', 	'1545', 	'aula_8', 			'32', 			'2', 		'Prova3'	);
INSERT INTO timesheet (id_comitato, inizio,	fine, aula,	giudice, tutor,	prova )	VALUES (	'118', 			'1546', 	'1615', 	'aula_liberi',		'', 			'2', 		'Pausa'	);
INSERT INTO timesheet (id_comitato, inizio,	fine, aula,	giudice, tutor,	prova )	VALUES (	'118', 			'1616', 	'1650', 	'aula_11',			'42', 			'2', 		'Prova4'	);
INSERT INTO timesheet (id_comitato, inizio,	fine, aula,	giudice, tutor,	prova )	VALUES (	'118', 			'1651', 	'1725', 	'aula_14', 			'52', 			'2', 		'Prova5');
INSERT INTO timesheet (id_comitato, inizio,	fine, aula,	giudice, tutor,	prova )	VALUES (	'118', 			'1726', 	'1800', 	'aula_17', 			'62', 			'2', 		'Prova6');

INSERT INTO timesheet (id_comitato, inizio,	fine, aula,	giudice, tutor,	prova )	VALUES (	'114', 			'1400', 	'1435', 	'aula_3', 			'13',	 		'2', 		'Prova1'	);
INSERT INTO timesheet (id_comitato, inizio,	fine, aula,	giudice, tutor,	prova )	VALUES (	'114', 			'1436', 	'1510', 	'aula_6', 			'23', 			'2', 		'Prova2'	);
INSERT INTO timesheet (id_comitato, inizio,	fine, aula,	giudice, tutor,	prova )	VALUES (	'114', 			'1511', 	'1545', 	'aula_9', 			'33', 			'2', 		'Prova3'	);
INSERT INTO timesheet (id_comitato, inizio,	fine, aula,	giudice, tutor,	prova )	VALUES (	'114', 			'1546', 	'1615', 	'aula_liberi',		'', 			'2', 		'Pausa'	);
INSERT INTO timesheet (id_comitato, inizio,	fine, aula,	giudice, tutor,	prova )	VALUES (	'114', 			'1616', 	'1650', 	'aula_12',			'43', 			'2', 		'Prova4'	);
INSERT INTO timesheet (id_comitato, inizio,	fine, aula,	giudice, tutor,	prova )	VALUES (	'114', 			'1651', 	'1725', 	'aula_15', 			'53', 			'2', 		'Prova5');
INSERT INTO timesheet (id_comitato, inizio,	fine, aula,	giudice, tutor,	prova )	VALUES (	'114', 			'1726', 	'1800', 	'aula_18', 			'63', 			'2', 		'Prova6');

INSERT INTO timesheet (id_comitato, inizio,	fine, aula,	giudice, tutor,	prova )	VALUES (	'112', 			'1400', 	'1435', 	'aula_4', 			'21',	 		'3', 		'Prova2'	);
INSERT INTO timesheet (id_comitato, inizio,	fine, aula,	giudice, tutor,	prova )	VALUES (	'112', 			'1436', 	'1510', 	'aula_7', 			'31', 			'3', 		'Prova3'	);
INSERT INTO timesheet (id_comitato, inizio,	fine, aula,	giudice, tutor,	prova )	VALUES (	'112', 			'1511', 	'1545', 	'aula_10', 			'41', 			'3', 		'Prova4'	);
INSERT INTO timesheet (id_comitato, inizio,	fine, aula,	giudice, tutor,	prova )	VALUES (	'112', 			'1546', 	'1615', 	'aula_liberi',		'', 			'3', 		'Pausa'	);
INSERT INTO timesheet (id_comitato, inizio,	fine, aula,	giudice, tutor,	prova )	VALUES (	'112', 			'1616', 	'1650', 	'aula_13',			'51', 			'3', 		'Prova5'	);
INSERT INTO timesheet (id_comitato, inizio,	fine, aula,	giudice, tutor,	prova )	VALUES (	'112', 			'1651', 	'1725', 	'aula_16', 			'61', 			'3', 		'Prova6');
INSERT INTO timesheet (id_comitato, inizio,	fine, aula,	giudice, tutor,	prova )	VALUES (	'112', 			'1726', 	'1800', 	'aula_1', 			'11', 			'3', 		'Prova1');

INSERT INTO timesheet (id_comitato, inizio,	fine, aula,	giudice, tutor,	prova )	VALUES (	'110', 			'1400', 	'1435', 	'aula_5', 			'22',	 		'3', 		'Prova2'	);
INSERT INTO timesheet (id_comitato, inizio,	fine, aula,	giudice, tutor,	prova )	VALUES (	'110', 			'1436', 	'1510', 	'aula_8', 			'32', 			'3', 		'Prova3'	);
INSERT INTO timesheet (id_comitato, inizio,	fine, aula,	giudice, tutor,	prova )	VALUES (	'110', 			'1511', 	'1545', 	'aula_11', 			'42', 			'3', 		'Prova4'	);
INSERT INTO timesheet (id_comitato, inizio,	fine, aula,	giudice, tutor,	prova )	VALUES (	'110', 			'1546', 	'1615', 	'aula_liberi',		'', 			'3', 		'Pausa'	);
INSERT INTO timesheet (id_comitato, inizio,	fine, aula,	giudice, tutor,	prova )	VALUES (	'110', 			'1616', 	'1650', 	'aula_14',			'52', 			'3', 		'Prova5'	);
INSERT INTO timesheet (id_comitato, inizio,	fine, aula,	giudice, tutor,	prova )	VALUES (	'110', 			'1651', 	'1725', 	'aula_17', 			'62', 			'3', 		'Prova6');
INSERT INTO timesheet (id_comitato, inizio,	fine, aula,	giudice, tutor,	prova )	VALUES (	'110', 			'1726', 	'1800', 	'aula_2', 			'12', 			'3', 		'Prova1');

INSERT INTO timesheet (id_comitato, inizio,	fine, aula,	giudice, tutor,	prova )	VALUES (	'102', 			'1400', 	'1435', 	'aula_6', 			'23',	 		'3', 		'Prova2'	);
INSERT INTO timesheet (id_comitato, inizio,	fine, aula,	giudice, tutor,	prova )	VALUES (	'102', 			'1436', 	'1510', 	'aula_9', 			'33', 			'3', 		'Prova3'	);
INSERT INTO timesheet (id_comitato, inizio,	fine, aula,	giudice, tutor,	prova )	VALUES (	'102', 			'1511', 	'1545', 	'aula_12', 			'43', 			'3', 		'Prova4'	);
INSERT INTO timesheet (id_comitato, inizio,	fine, aula,	giudice, tutor,	prova )	VALUES (	'102', 			'1546', 	'1615', 	'aula_liberi',		'', 			'3', 		'Pausa'	);
INSERT INTO timesheet (id_comitato, inizio,	fine, aula,	giudice, tutor,	prova )	VALUES (	'102', 			'1616', 	'1650', 	'aula_15',			'53', 			'3', 		'Prova5'	);
INSERT INTO timesheet (id_comitato, inizio,	fine, aula,	giudice, tutor,	prova )	VALUES (	'102', 			'1651', 	'1725', 	'aula_18', 			'63', 			'3', 		'Prova6');
INSERT INTO timesheet (id_comitato, inizio,	fine, aula,	giudice, tutor,	prova )	VALUES (	'102', 			'1726', 	'1800', 	'aula_3', 			'13', 			'3', 		'Prova1');

INSERT INTO timesheet (id_comitato, inizio,	fine, aula,	giudice, tutor,	prova )	VALUES (	'106', 			'1400', 	'1435', 	'aula_7', 			'31',	 		'4', 		'Prova3'	);
INSERT INTO timesheet (id_comitato, inizio,	fine, aula,	giudice, tutor,	prova )	VALUES (	'106', 			'1436', 	'1510', 	'aula_10', 			'41', 			'4', 		'Prova4'	);
INSERT INTO timesheet (id_comitato, inizio,	fine, aula,	giudice, tutor,	prova )	VALUES (	'106', 			'1511', 	'1545', 	'aula_13', 			'51', 			'4', 		'Prova5'	);
INSERT INTO timesheet (id_comitato, inizio,	fine, aula,	giudice, tutor,	prova )	VALUES (	'106', 			'1546', 	'1615', 	'aula_liberi',		'', 			'4', 		'Pausa'	);
INSERT INTO timesheet (id_comitato, inizio,	fine, aula,	giudice, tutor,	prova )	VALUES (	'106', 			'1616', 	'1650', 	'aula_16',			'61', 			'4', 		'Prova6'	);
INSERT INTO timesheet (id_comitato, inizio,	fine, aula,	giudice, tutor,	prova )	VALUES (	'106', 			'1651', 	'1725', 	'aula_1', 			'11', 			'4', 		'Prova1');
INSERT INTO timesheet (id_comitato, inizio,	fine, aula,	giudice, tutor,	prova )	VALUES (	'106', 			'1726', 	'1800', 	'aula_4', 			'21', 			'4', 		'Prova2');

INSERT INTO timesheet (id_comitato, inizio,	fine, aula,	giudice, tutor,	prova )	VALUES (	'100', 			'1400', 	'1435', 	'aula_8', 			'32',	 		'4', 		'Prova3'	);
INSERT INTO timesheet (id_comitato, inizio,	fine, aula,	giudice, tutor,	prova )	VALUES (	'100', 			'1436', 	'1510', 	'aula_11', 			'42', 			'4', 		'Prova4'	);
INSERT INTO timesheet (id_comitato, inizio,	fine, aula,	giudice, tutor,	prova )	VALUES (	'100', 			'1511', 	'1545', 	'aula_14', 			'52', 			'4', 		'Prova5'	);
INSERT INTO timesheet (id_comitato, inizio,	fine, aula,	giudice, tutor,	prova )	VALUES (	'100', 			'1546', 	'1615', 	'aula_liberi',		'', 			'4', 		'Pausa'	);
INSERT INTO timesheet (id_comitato, inizio,	fine, aula,	giudice, tutor,	prova )	VALUES (	'100', 			'1616', 	'1650', 	'aula_17',			'62', 			'4', 		'Prova6'	);
INSERT INTO timesheet (id_comitato, inizio,	fine, aula,	giudice, tutor,	prova )	VALUES (	'100', 			'1651', 	'1725', 	'aula_2', 			'12', 			'4', 		'Prova1');
INSERT INTO timesheet (id_comitato, inizio,	fine, aula,	giudice, tutor,	prova )	VALUES (	'100', 			'1726', 	'1800', 	'aula_5', 			'22', 			'4', 		'Prova2');

INSERT INTO timesheet (id_comitato, inizio,	fine, aula,	giudice, tutor,	prova )	VALUES (	'104', 			'1400', 	'1435', 	'aula_9', 			'33',	 		'4', 		'Prova3'	);
INSERT INTO timesheet (id_comitato, inizio,	fine, aula,	giudice, tutor,	prova )	VALUES (	'104', 			'1436', 	'1510', 	'aula_12', 			'43', 			'4', 		'Prova4'	);
INSERT INTO timesheet (id_comitato, inizio,	fine, aula,	giudice, tutor,	prova )	VALUES (	'104', 			'1511', 	'1545', 	'aula_15', 			'53', 			'4', 		'Prova5'	);
INSERT INTO timesheet (id_comitato, inizio,	fine, aula,	giudice, tutor,	prova )	VALUES (	'104', 			'1546', 	'1615', 	'aula_liberi',		'', 			'4', 		'Pausa'	);
INSERT INTO timesheet (id_comitato, inizio,	fine, aula,	giudice, tutor,	prova )	VALUES (	'104', 			'1616', 	'1650', 	'aula_18',			'63', 			'4', 		'Prova6'	);
INSERT INTO timesheet (id_comitato, inizio,	fine, aula,	giudice, tutor,	prova )	VALUES (	'104', 			'1651', 	'1725', 	'aula_3', 			'13', 			'4', 		'Prova1');
INSERT INTO timesheet (id_comitato, inizio,	fine, aula,	giudice, tutor,	prova )	VALUES (	'104', 			'1726', 	'1800', 	'aula_6', 			'23', 			'4', 		'Prova2');

INSERT INTO timesheet (id_comitato, inizio,	fine, aula,	giudice, tutor,	prova )	VALUES (	'108', 			'1400', 	'1435', 	'aula_10', 			'41',	 		'5', 		'Prova4'	);
INSERT INTO timesheet (id_comitato, inizio,	fine, aula,	giudice, tutor,	prova )	VALUES (	'108', 			'1436', 	'1510', 	'aula_13', 			'51', 			'5', 		'Prova5'	);
INSERT INTO timesheet (id_comitato, inizio,	fine, aula,	giudice, tutor,	prova )	VALUES (	'108', 			'1511', 	'1545', 	'aula_16', 			'61', 			'5', 		'Prova6'	);
INSERT INTO timesheet (id_comitato, inizio,	fine, aula,	giudice, tutor,	prova )	VALUES (	'108', 			'1546', 	'1615', 	'aula_liberi',		'', 			'5', 		'Pausa'	);
INSERT INTO timesheet (id_comitato, inizio,	fine, aula,	giudice, tutor,	prova )	VALUES (	'108', 			'1616', 	'1650', 	'aula_1',			'11', 			'5', 		'Prova1'	);
INSERT INTO timesheet (id_comitato, inizio,	fine, aula,	giudice, tutor,	prova )	VALUES (	'108', 			'1651', 	'1725', 	'aula_4', 			'21', 			'5', 		'Prova2');
INSERT INTO timesheet (id_comitato, inizio,	fine, aula,	giudice, tutor,	prova )	VALUES (	'108', 			'1726', 	'1800', 	'aula_7', 			'31', 			'5', 		'Prova3');

INSERT INTO timesheet (id_comitato, inizio,	fine, aula,	giudice, tutor,	prova )	VALUES (	'111', 			'1400', 	'1435', 	'aula_11', 			'42',	 		'5', 		'Prova4'	);
INSERT INTO timesheet (id_comitato, inizio,	fine, aula,	giudice, tutor,	prova )	VALUES (	'111', 			'1436', 	'1510', 	'aula_14', 			'52', 			'5', 		'Prova5'	);
INSERT INTO timesheet (id_comitato, inizio,	fine, aula,	giudice, tutor,	prova )	VALUES (	'111', 			'1511', 	'1545', 	'aula_17', 			'62', 			'5', 		'Prova6'	);
INSERT INTO timesheet (id_comitato, inizio,	fine, aula,	giudice, tutor,	prova )	VALUES (	'111', 			'1546', 	'1615', 	'aula_liberi',		'', 			'5', 		'Pausa'	);
INSERT INTO timesheet (id_comitato, inizio,	fine, aula,	giudice, tutor,	prova )	VALUES (	'111', 			'1616', 	'1650', 	'aula_2',			'12', 			'5', 		'Prova1'	);
INSERT INTO timesheet (id_comitato, inizio,	fine, aula,	giudice, tutor,	prova )	VALUES (	'111', 			'1651', 	'1725', 	'aula_5', 			'22', 			'5', 		'Prova2');
INSERT INTO timesheet (id_comitato, inizio,	fine, aula,	giudice, tutor,	prova )	VALUES (	'111', 			'1726', 	'1800', 	'aula_8', 			'32', 			'5', 		'Prova3');

INSERT INTO timesheet (id_comitato, inizio,	fine, aula,	giudice, tutor,	prova )	VALUES (	'113', 			'1400', 	'1435', 	'aula_12', 			'43',	 		'5', 		'Prova4'	);
INSERT INTO timesheet (id_comitato, inizio,	fine, aula,	giudice, tutor,	prova )	VALUES (	'113', 			'1436', 	'1510', 	'aula_15', 			'53', 			'5', 		'Prova5'	);
INSERT INTO timesheet (id_comitato, inizio,	fine, aula,	giudice, tutor,	prova )	VALUES (	'113', 			'1511', 	'1545', 	'aula_18', 			'63', 			'5', 		'Prova6'	);
INSERT INTO timesheet (id_comitato, inizio,	fine, aula,	giudice, tutor,	prova )	VALUES (	'113', 			'1546', 	'1615', 	'aula_liberi',		'', 			'5', 		'Pausa'	);
INSERT INTO timesheet (id_comitato, inizio,	fine, aula,	giudice, tutor,	prova )	VALUES (	'113', 			'1616', 	'1650', 	'aula_3',			'13', 			'5', 		'Prova1'	);
INSERT INTO timesheet (id_comitato, inizio,	fine, aula,	giudice, tutor,	prova )	VALUES (	'113', 			'1651', 	'1725', 	'aula_6', 			'23', 			'5', 		'Prova2');
INSERT INTO timesheet (id_comitato, inizio,	fine, aula,	giudice, tutor,	prova )	VALUES (	'113', 			'1726', 	'1800', 	'aula_9', 			'33', 			'5', 		'Prova3');

INSERT INTO timesheet (id_comitato, inizio,	fine, aula,	giudice, tutor,	prova )	VALUES (	'105', 			'1400', 	'1435', 	'aula_13', 			'51',	 		'6', 		'Prova5'	);
INSERT INTO timesheet (id_comitato, inizio,	fine, aula,	giudice, tutor,	prova )	VALUES (	'105', 			'1436', 	'1510', 	'aula_16', 			'61', 			'6', 		'Prova6'	);
INSERT INTO timesheet (id_comitato, inizio,	fine, aula,	giudice, tutor,	prova )	VALUES (	'105', 			'1511', 	'1545', 	'aula_11', 			'11', 			'6', 		'Prova1'	);
INSERT INTO timesheet (id_comitato, inizio,	fine, aula,	giudice, tutor,	prova )	VALUES (	'105', 			'1546', 	'1615', 	'aula_liberi',		'', 			'6', 		'Pausa'	);
INSERT INTO timesheet (id_comitato, inizio,	fine, aula,	giudice, tutor,	prova )	VALUES (	'105', 			'1616', 	'1650', 	'aula_4',			'21', 			'6', 		'Prova2'	);
INSERT INTO timesheet (id_comitato, inizio,	fine, aula,	giudice, tutor,	prova )	VALUES (	'105', 			'1651', 	'1725', 	'aula_7', 			'31', 			'6', 		'Prova3');
INSERT INTO timesheet (id_comitato, inizio,	fine, aula,	giudice, tutor,	prova )	VALUES (	'105', 			'1726', 	'1800', 	'aula_10', 			'41', 			'6', 		'Prova4');

INSERT INTO timesheet (id_comitato, inizio,	fine, aula,	giudice, tutor,	prova )	VALUES (	'99', 			'1400', 	'1435', 	'aula_14', 			'52',	 		'6', 		'Prova5'	);
INSERT INTO timesheet (id_comitato, inizio,	fine, aula,	giudice, tutor,	prova )	VALUES (	'99', 			'1436', 	'1510', 	'aula_17', 			'62', 			'6', 		'Prova6'	);
INSERT INTO timesheet (id_comitato, inizio,	fine, aula,	giudice, tutor,	prova )	VALUES (	'99', 			'1511', 	'1545', 	'aula_2', 			'12', 			'6', 		'Prova1'	);
INSERT INTO timesheet (id_comitato, inizio,	fine, aula,	giudice, tutor,	prova )	VALUES (	'99', 			'1546', 	'1615', 	'aula_liberi',		'', 			'6', 		'Pausa'	);
INSERT INTO timesheet (id_comitato, inizio,	fine, aula,	giudice, tutor,	prova )	VALUES (	'99', 			'1616', 	'1650', 	'aula_5',			'22', 			'6', 		'Prova2'	);
INSERT INTO timesheet (id_comitato, inizio,	fine, aula,	giudice, tutor,	prova )	VALUES (	'99', 			'1651', 	'1725', 	'aula_8', 			'32', 			'6', 		'Prova3');
INSERT INTO timesheet (id_comitato, inizio,	fine, aula,	giudice, tutor,	prova )	VALUES (	'99', 			'1726', 	'1800', 	'aula_11', 			'42', 			'6', 		'Prova4');

INSERT INTO timesheet (id_comitato, inizio,	fine, aula,	giudice, tutor,	prova )	VALUES (	'116', 			'1400', 	'1435', 	'aula_15', 			'53',	 		'6', 		'Prova5'	);
INSERT INTO timesheet (id_comitato, inizio,	fine, aula,	giudice, tutor,	prova )	VALUES (	'116', 			'1436', 	'1510', 	'aula_18', 			'63', 			'6', 		'Prova6'	);
INSERT INTO timesheet (id_comitato, inizio,	fine, aula,	giudice, tutor,	prova )	VALUES (	'116', 			'1511', 	'1545', 	'aula_3', 			'13', 			'6', 		'Prova1'	);
INSERT INTO timesheet (id_comitato, inizio,	fine, aula,	giudice, tutor,	prova )	VALUES (	'116', 			'1546', 	'1615', 	'aula_liberi',		'', 			'6', 		'Pausa'	);
INSERT INTO timesheet (id_comitato, inizio,	fine, aula,	giudice, tutor,	prova )	VALUES (	'116', 			'1616', 	'1650', 	'aula_6',			'23', 			'6', 		'Prova2'	);
INSERT INTO timesheet (id_comitato, inizio,	fine, aula,	giudice, tutor,	prova )	VALUES (	'116', 			'1651', 	'1725', 	'aula_9', 			'33', 			'6', 		'Prova3');
INSERT INTO timesheet (id_comitato, inizio,	fine, aula,	giudice, tutor,	prova )	VALUES (	'116', 			'1726', 	'1800', 	'aula_12', 			'43', 			'6', 		'Prova4');